<svg width="246" height="342" viewBox="0 0 246 342" fill="none" xmlns="http://www.w3.org/2000/svg">
<path fill-rule="evenodd" clip-rule="evenodd" d="M11.6149 10.1972C-54.3266 27.0361 -34.0302 120.251 -83.6872 145.785C-110.87 159.763 -171.005 177.96 -99.4114 293.904C-52.9824 368.616 11.7239 351.33 42.8665 275.751C53.9471 256.621 68.2447 250.525 87.0851 249.291C105.925 248.056 146.095 272.34 184.213 257.091C298.921 211.204 258.564 -52.8641 11.6149 10.1972Z" fill="#0D3E83" fill-opacity="0.4"/>
</svg>
