<svg width="528" height="626" viewBox="0 0 528 626" fill="none" xmlns="http://www.w3.org/2000/svg">
<path fill-rule="evenodd" clip-rule="evenodd" d="M103.423 501.751C45.3539 465.13 62.6892 390.892 37.6966 332.78C11.3341 271.482 -67.9033 212.478 -44.688 157.367C-21.3659 102.002 65.7943 100.186 135.143 101.45C189.94 102.449 236.116 140.086 288.597 163.442C352.216 191.755 436.992 193.618 469.942 250.45C504.015 309.219 473.585 373.722 438.371 421.771C406.771 464.887 349.196 479.538 292.046 493.185C230.684 507.837 162.144 538.784 103.423 501.751Z" fill="#554E4E" fill-opacity="0.1"/>
</svg>
